

Members Of Union aab_u1 Are : 

aab_u1.aab_i = 986811713

aab_u1.aab_f = 0.001599

aab_u1.aab_d = 8.333330

aab_u1.aab_c = A


Address Of Members Of Union aab_u1 Are : 

aab_u1.aab_i = 0115FEF4

aab_u1.aab_f = 0115FEF4

aab_u1.aab_d = 0115FEF4

aab_u1.aab_c = 0115FEF4

AAB_MyUnion aab_u1 = 0115FEF4



Members Of Union aab_u2 Are : 

aab_u2.aab_i = 3

aab_u2.aab_f = 4.500000

aab_u2.aab_d = 5.123456

aab_u2.aab_c = B


Address Of Members Of Union aab_u2 Are : 

aab_u2.aab_i = 0115FEEC

aab_u2.aab_f = 0115FEEC

aab_u2.aab_d = 0115FEEC

aab_u2.aab_c = 0115FEEC

AAB_MyUnion aab_u2 = 0115FEEC

